<?xml version="1.0" encoding="utf-8"?>
<!-- Generated by IcoMoon.io -->
<!DOCTYPE svg PUBLIC "-//W3C//DTD SVG 1.1//EN" "http://www.w3.org/Graphics/SVG/1.1/DTD/svg11.dtd">
<svg version="1.1" xmlns="http://www.w3.org/2000/svg" xmlns:xlink="http://www.w3.org/1999/xlink" width="64" height="56" viewBox="0 0 64 56">
<path fill="#444444" d="M57.75 10.594h-15.969v3.875h15.969v-3.875zM49.875 23.906q-2.813 0-4.563 1.641t-1.938 4.453h12.75q-0.563-6.094-6.25-6.094zM50.375 42.188q1.969 0 3.812-1t2.375-2.719h6.906q-3.125 9.594-13.344 9.594-6.688 0-10.641-4.125t-3.953-10.844q0-6.5 4.078-10.797t10.516-4.297q4.312 0 7.516 2.125t4.781 5.594 1.578 7.75q0 0.531-0.063 1.469h-20.563q0 3.469 1.797 5.359t5.203 1.891zM8.656 40.625h9.25q6.406 0 6.406-5.219 0-5.625-6.219-5.625h-9.437v10.844zM8.656 23.844h8.781q2.437 0 3.859-1.141t1.422-3.547q0-4.5-5.937-4.5h-8.125v9.188zM0 7.938h18.563q2.719 0 4.844 0.438t3.953 1.484 2.813 3.016 0.984 4.812q0 5.656-5.375 8.219 3.563 1 5.375 3.594t1.813 6.375q0 2.344-0.766 4.266t-2.062 3.234-3.078 2.219-3.781 1.313-4.187 0.406h-19.094v-39.375z"></path>
</svg>
