<?xml version="1.0" encoding="utf-8"?>
<!-- Generated by IcoMoon.io -->
<!DOCTYPE svg PUBLIC "-//W3C//DTD SVG 1.1//EN" "http://www.w3.org/Graphics/SVG/1.1/DTD/svg11.dtd">
<svg version="1.1" xmlns="http://www.w3.org/2000/svg" xmlns:xlink="http://www.w3.org/1999/xlink" width="70" height="32" viewBox="0 0 70 32">
<path fill="#444444" d="M58.783 6.4l-3.2 3.2c0 0 4.939 4.939 6.887 6.887-1.948 1.948-6.887 6.887-6.887 6.887l3.2 3.2 10.087-10.087-10.087-10.087z"></path>
<path fill="#444444" d="M7.165 16.487c1.948-1.948 6.887-6.887 6.887-6.887l-3.2-3.2-10.157 10.087 10.087 10.087 3.2-3.2c0.070 0-4.87-4.939-6.817-6.887z"></path>
<path fill="#444444" d="M38.748 12.035v-10.296h-7.93v10.296h-10.365v7.93h10.365v10.296h7.93v-10.296h10.296v-7.93z"></path>
</svg>
