<?xml version="1.0" encoding="utf-8"?>
<!-- Generated by IcoMoon.io -->
<!DOCTYPE svg PUBLIC "-//W3C//DTD SVG 1.1//EN" "http://www.w3.org/Graphics/SVG/1.1/DTD/svg11.dtd">
<svg version="1.1" xmlns="http://www.w3.org/2000/svg" xmlns:xlink="http://www.w3.org/1999/xlink" width="80" height="80" viewBox="0 0 80 80">
<path fill="#444444" d="M38 76c-0.335 0-0.669-0.084-0.971-0.252-0.376-0.209-9.304-5.205-18.369-13.389-5.363-4.841-9.646-9.794-12.73-14.72-3.935-6.285-5.93-12.556-5.93-18.639 0-11.58 9.42-21 21-21 3.92 0 8.083 1.469 11.723 4.137 2.129 1.56 3.941 3.441 5.277 5.438 1.336-1.997 3.148-3.878 5.277-5.438 3.64-2.668 7.803-4.137 11.723-4.137 11.58 0 21 9.42 21 21 0 6.084-1.995 12.355-5.93 18.639-3.084 4.926-7.367 9.879-12.73 14.72-9.065 8.184-17.993 13.18-18.369 13.389-0.302 0.168-0.637 0.252-0.971 0.252zM21 12c-9.374 0-17 7.626-17 17 0 12.158 9.399 23.209 17.283 30.339 7.041 6.367 14.175 10.833 16.717 12.347 2.542-1.514 9.675-5.98 16.717-12.347 7.885-7.13 17.283-18.181 17.283-30.339 0-9.374-7.626-17-17-17-6.811 0-13.426 5.604-15.103 10.633-0.272 0.817-1.036 1.368-1.897 1.368s-1.625-0.551-1.897-1.368c-1.676-5.029-8.291-10.632-15.103-10.632z"></path>
</svg>
