<?xml version="1.0" encoding="utf-8"?>
<!-- Generated by IcoMoon.io -->
<!DOCTYPE svg PUBLIC "-//W3C//DTD SVG 1.1//EN" "http://www.w3.org/Graphics/SVG/1.1/DTD/svg11.dtd">
<svg version="1.1" xmlns="http://www.w3.org/2000/svg" xmlns:xlink="http://www.w3.org/1999/xlink" width="80" height="80" viewBox="0 0 80 80">
<path fill="#444444" d="M52 26c0-0.8 0-3.6-1.6-6.8-0.8-2-2-3.6-3.6-4.8-0.4-0.4-0.8-0.4-1.2-0.8 1.6-1.6 2.4-3.6 2.4-5.6 0-4.4-3.6-8-8-8s-8 3.6-8 8c0 2 0.8 4 2 5.6-0.4 0-0.8 0.4-1.2 0.8-1.2 1.2-2.4 2.8-3.2 4.8-1.6 3.2-1.6 6.8-1.6 6.8 0 1.2 0.8 2 2 2h20c1.2 0 2-0.8 2-2 0 0 0 0 0 0zM36 8c0-2.4 1.6-4 4-4s4 1.6 4 4c0 2.4-1.6 4-4 4s-4-1.6-4-4zM32 24c0-0.8 0.4-2 0.8-3.2 1.6-3.2 4-4.8 7.2-4.8 5.6 0 7.2 5.2 8 8h-16z"></path>
<path fill="#444444" d="M24 70c0-0.8 0-3.6-1.6-6.8-0.8-2-2-3.6-3.6-4.8-0.4-0.4-0.8-0.4-1.2-0.8 1.6-1.6 2.4-3.6 2.4-5.6 0-4.4-3.6-8-8-8s-8 3.6-8 8c0 2 0.8 4 2 5.6-0.4 0.4-0.8 0.4-1.2 0.8-1.6 1.2-2.8 2.8-3.6 4.8-1.2 3.2-1.2 6.8-1.2 6.8 0 1.2 0.8 2 2 2h20c1.2 0 2-0.8 2-2 0 0 0 0 0 0zM8 52c0-2.4 1.6-4 4-4s4 1.6 4 4-1.6 4-4 4-4-1.6-4-4zM4 68c0-0.8 0.4-2 0.8-3.2 1.6-3.2 4-4.8 7.2-4.8 5.6 0 7.2 5.2 8 8h-16z"></path>
<path fill="#444444" d="M80 70c0-0.8 0-3.6-1.6-6.8-0.8-2-2-3.6-3.6-4.8-0.4-0.4-0.8-0.4-1.2-0.8 1.6-1.6 2.4-3.6 2.4-5.6 0-4.4-3.6-8-8-8s-8 3.6-8 8c0 2 0.8 4 2 5.6-0.4 0.4-0.8 0.4-1.2 0.8-1.6 1.2-2.8 2.8-3.6 4.8-1.2 3.2-1.2 6.8-1.2 6.8 0 1.2 0.8 2 2 2h20c1.2 0 2-0.8 2-2 0 0 0 0 0 0zM64 52c0-2.4 1.6-4 4-4s4 1.6 4 4-1.6 4-4 4c-2.4 0-4-1.6-4-4zM60 68c0-0.8 0.4-2 0.8-3.2 1.2-3.2 3.6-4.8 6.8-4.8 5.6 0 7.2 5.2 8 8h-15.6z"></path>
<path fill="#444444" d="M40 80c-5.2 0-10.4-1.2-14.8-3.6-0.8-0.4-1.2-1.6-0.8-2.8 0.4-0.8 1.6-1.2 2.8-0.8 4 2 8.4 3.2 13.2 3.2s9.2-1.2 13.2-3.2c0.8-0.4 2 0 2.8 0.8 0.4 0.8 0 2-0.8 2.8-5.2 2.4-10.4 3.6-15.6 3.6z"></path>
<path fill="#444444" d="M68.8 42c-0.8 0-1.6-0.4-2-1.6-2-6.8-6-12.4-12-16.4-0.8-0.4-1.2-2-0.8-2.8s2-1.2 2.8-0.8c6.8 4.4 11.6 10.8 13.6 18.4 0.4 1.2-0.4 2-1.2 2.4 0 0.8 0 0.8-0.4 0.8v0z"></path>
<path fill="#444444" d="M11.2 42c0 0-0.4 0-0.4 0-1.2-0.4-1.6-1.2-1.2-2.4 1.6-8 6.4-14.4 13.2-18.8 1.2-0.4 2.4 0 2.8 0.8s0.4 2-0.8 2.8c-6 3.6-10.4 9.6-12 16.4 0 0.8-0.8 1.2-1.6 1.2v0z"></path>
</svg>
