<?xml version="1.0" encoding="utf-8"?>
<!-- Generated by IcoMoon.io -->
<!DOCTYPE svg PUBLIC "-//W3C//DTD SVG 1.1//EN" "http://www.w3.org/Graphics/SVG/1.1/DTD/svg11.dtd">
<svg version="1.1" xmlns="http://www.w3.org/2000/svg" xmlns:xlink="http://www.w3.org/1999/xlink" width="80" height="80" viewBox="0 0 80 80">
<path fill="#444444" d="M42 80h-4c-1.105 0-2-0.895-2-2s0.895-2 2-2h4c1.105 0 2 0.895 2 2s-0.895 2-2 2z"></path>
<path fill="#444444" d="M40 0c-13.234 0-24 10.766-24 24 0 8.457 4.055 15.311 4.227 15.599 1.065 1.775 2.578 4.911 3.305 6.849l3.191 8.509c0.484 1.29 1.413 2.451 2.566 3.334-0.806 1.022-1.289 2.31-1.289 3.709 0 1.535 0.58 2.938 1.533 4-0.952 1.062-1.533 2.465-1.533 4 0 3.309 2.692 6 6 6h12c3.309 0 6-2.691 6-6 0-1.535-0.58-2.938-1.533-4 0.952-1.062 1.533-2.465 1.533-4 0-1.399-0.483-2.687-1.289-3.709 1.153-0.883 2.082-2.045 2.565-3.335l3.189-8.509c0.726-1.937 2.239-5.073 3.305-6.847 0.173-0.288 4.23-7.143 4.23-15.6 0-13.234-10.766-24-24-24zM46 72h-12c-1.103 0-2-0.897-2-2s0.897-2 2-2h12c1.103 0 2 0.897 2 2s-0.897 2-2 2zM48 62c0 1.103-0.897 2-2 2h-12c-1.103 0-2-0.897-2-2s0.897-2 2-2h12c1.103 0 2 0.897 2 2zM56.34 37.541c-1.187 1.977-2.811 5.343-3.621 7.503l-3.189 8.509c-0.48 1.281-2.163 2.447-3.531 2.447h-12c-1.368 0-3.051-1.167-3.532-2.448l-3.191-8.509c-0.81-2.159-2.434-5.525-3.62-7.502-0.037-0.061-3.657-6.18-3.657-13.541 0-11.028 8.972-20 20-20s20 8.972 20 20c0 7.316-3.625 13.482-3.66 13.541z"></path>
</svg>
