<?xml version="1.0" encoding="utf-8"?>
<!-- Generated by IcoMoon.io -->
<!DOCTYPE svg PUBLIC "-//W3C//DTD SVG 1.1//EN" "http://www.w3.org/Graphics/SVG/1.1/DTD/svg11.dtd">
<svg version="1.1" xmlns="http://www.w3.org/2000/svg" xmlns:xlink="http://www.w3.org/1999/xlink" width="80" height="80" viewBox="0 0 80 80">
<path fill="#444444" d="M29.895 31.158c2.947-2.526 7.158-4.211 10.947-5.895 4.211-1.684 8.842-3.789 12.211-6.737 3.789-3.368 5.895-7.158 5.895-12.211v-4.211c0-1.263-0.842-2.105-2.105-2.105s-2.105 0.842-2.105 2.105v4.211c0 0.421 0 0.842 0 1.684l-31.158-8c0 0-0.421 0-0.421 0-1.263 0-2.105 0.842-2.105 2.105v4.211c0 8 5.053 12.211 9.263 14.316 0.421 0.421 0.842 0.421 0.842 0.421 0.842 0 1.263-0.421 1.684-0.842 0.842-1.263 0.421-2.526-0.421-2.947-5.053-2.947-7.158-6.316-7.158-10.947v-1.684l28.211 7.158c-0.842 1.263-2.105 2.526-3.368 3.368-2.947 2.526-6.737 4.211-10.947 5.895s-8.842 3.789-12.211 6.737c-3.789 3.368-5.895 7.158-5.895 12.211 0 8 5.053 12.211 9.263 14.316 0.421 0.421 0.842 0.421 0.842 0.421 0.842 0 1.263-0.421 1.684-0.842 0.421-0.842 0.421-2.105-0.842-2.947-4.632-2.947-6.737-6.316-6.737-10.947 0-0.421 0-0.842 0-1.684l27.789 7.158c-0.842 1.263-1.684 2.526-2.947 3.368-2.947 2.526-7.158 4.211-10.947 5.895-4.211 1.684-8.842 3.789-12.211 6.737-4.211 3.368-5.895 7.158-5.895 12.211v4.211c0 1.263 0.842 2.105 2.105 2.105s2.105-0.842 2.105-2.105v-4.211c0-0.421 0-0.842 0-1.684l31.158 8c0 0 0.421 0 0.421 0 1.263 0 2.105-0.842 2.105-2.105v-4.211c0-8-5.053-12.211-9.263-14.316-0.842-0.421-2.105-0.421-2.947 0.842-0.421 0.842-0.421 2.105 0.842 2.947 5.053 2.526 7.158 5.895 7.158 10.526v1.684l-28.211-7.158c0.842-1.263 1.684-2.526 2.947-3.368 2.947-2.526 7.158-4.211 10.947-5.895 4.211-1.684 8.842-3.789 12.211-6.737 4.211-3.368 5.895-7.158 5.895-12.211 0-8-5.053-12.211-9.263-14.316-0.421-0.842-1.684-0.421-2.526 0.421-0.421 1.263 0 2.526 0.842 2.947 5.053 3.368 7.158 6.316 7.158 10.947 0 0.421 0 0.842 0 1.684l-28.211-7.158c0.842-1.263 2.105-2.526 3.368-3.368v0z"></path>
</svg>
