<?xml version="1.0" encoding="utf-8"?>
<!-- Generated by IcoMoon.io -->
<!DOCTYPE svg PUBLIC "-//W3C//DTD SVG 1.1//EN" "http://www.w3.org/Graphics/SVG/1.1/DTD/svg11.dtd">
<svg version="1.1" xmlns="http://www.w3.org/2000/svg" xmlns:xlink="http://www.w3.org/1999/xlink" width="80" height="80" viewBox="0 0 80 80">
<path fill="#444444" d="M43.437 65.129c1.37-0.725 1.922-2.398 1.19-3.777 0 0-1.363-2.561-2.114-3.953-0.382 1.801-1.435 2.407-3.919 4.558l1.075 2.023c0.487 0.909 2.375 1.896 3.767 1.149zM36.224 61.875l3.822-3.311c1.283-1.124 1.219-3.038 0.119-4.099-1.060-1.076-2.745-1.064-3.794-0.147l-3.823 3.321c-1.178 1.018-1.273 2.787-0.262 3.956 0.88 1.004 2.64 1.389 3.938 0.281zM49.648 61.84c1.458-0.781 1.875-2.469 1.192-3.788l-4.324-8.074 1.229-0.774 4.81 9.078c0.718 1.352 2.383 1.866 3.767 1.159 1.44-0.777 1.9-2.45 1.19-3.787l-5-9.417 1.273-0.764c0 0 3.307 6.365 4.499 8.633 0.736 1.373 2.44 1.865 3.769 1.149 1.397-0.738 1.918-2.403 1.189-3.786-3.745-7.093-2.931-5.6-4.457-8.102-4.508-6.26-11.080-10.557-17.551-15.916l-11.501 5.401c-2.375 1.092-4.875-0.044-5.86-2.077-1.076-2.24-0.129-4.851 2.050-5.906l2.752-1.292-8.839-0.025-9.364 12.814 6.102 5.611c0.257-0.565 0.637-1.072 1.112-1.484l6.852-5.95c1.826-1.56 4.592-1.402 6.21 0.44 0.798 0.929 1.178 2.071 1.087 3.247 1.599-0.361 3.223 0.211 4.271 1.407 1.284 1.481 1.449 3.563 0.466 5.172 1.024 0.165 1.946 0.676 2.621 1.456 1.507 1.745 1.426 4.264-0.044 5.87 1.008-0.149 2.199 0.384 2.76 1.247 0 0 2.916 5.297 3.976 7.305 0.478 0.912 2.38 1.893 3.765 1.152zM31.618 56.567l6.101-5.289c1.147-0.987 1.292-2.752 0.249-3.955-0.988-1.15-2.756-1.3-3.926-0.279-0.143 0.124-6.186 5.356-6.317 5.493-0.97 1.040-0.985 2.652-0.033 3.752 0.902 1.046 2.684 1.356 3.926 0.278zM26.259 51.908l8.369-7.254c1.164-0.997 1.295-2.762 0.261-3.955-1.030-1.175-2.777-1.282-3.927-0.281l-7.642 6.612c-1.771 1.118-2.015 3.42-0.986 4.601 0.855 1.004 2.657 1.386 3.925 0.277zM18.488 45.669c-1.039-1.201-0.888-2.97 0.251-3.955l6.854-5.951c1.148-0.979 2.913-0.89 3.938 0.281 1.029 1.197 0.919 2.936-0.251 3.955l-6.864 5.951c-1.074 0.94-2.835 0.967-3.928-0.281zM41.476 25.552l-12.432 5.835c-1.463 0.683-3.076 0.013-3.722-1.317-0.696-1.455-0.061-3.089 1.3-3.752l12.512-5.868c1.739-0.634 3.475-0.92 5.61-0.92 4.301 0 13.132 2.315 17.2 3.47l7.307 12.462-4.19 2.641c-1.004 0.962-1.824 3.676-4.022 5.12-4.499-6.096-12.364-12.451-19.563-17.671zM63.076 20.449l7.683-4.695 9.241 15.457-7.985 4.479-8.939-15.24zM0 30.308l10.796-15.701 7.942 6.367-10.547 14.633-8.19-5.3z"></path>
</svg>
