<?xml version="1.0" encoding="utf-8"?>
<!-- Generator: Adobe Illustrator 18.0.0, SVG Export Plug-In . SVG Version: 6.00 Build 0)  -->
<!DOCTYPE svg PUBLIC "-//W3C//DTD SVG 1.1//EN" "http://www.w3.org/Graphics/SVG/1.1/DTD/svg11.dtd">
<svg version="1.1" id="Layer_1" xmlns="http://www.w3.org/2000/svg" xmlns:xlink="http://www.w3.org/1999/xlink" x="0px" y="0px"
	 viewBox="0 0 80 80" enable-background="new 0 0 80 80" xml:space="preserve">
<path d="M65.1,37.9H41.6V14.7c0-1.2-1-2.1-2.1-2.1c-1.2,0-2.1,0.9-2.1,2.1v23.2H13.9c-1.2,0-2.1,0.9-2.1,2.1c0,1.2,1,2.1,2.1,2.1
	h23.5v23.2c0,1.2,1,2.1,2.1,2.1c1.2,0,2.1-0.9,2.1-2.1V42.1h23.5c1.2,0,2.1-0.9,2.1-2.1C67.2,38.8,66.3,37.9,65.1,37.9"/>
<path d="M75.7,4.2v71.6H3.2V4.2H75.7 M80,0H-1v80h81V0L80,0z"/>
</svg>
