<?xml version="1.0" encoding="iso-8859-1"?>
<!-- Generator: Adobe Illustrator 17.1.0, SVG Export Plug-In . SVG Version: 6.00 Build 0)  -->
<!DOCTYPE svg PUBLIC "-//W3C//DTD SVG 1.1//EN" "http://www.w3.org/Graphics/SVG/1.1/DTD/svg11.dtd">
<svg version="1.1" id="Capa_1" xmlns="http://www.w3.org/2000/svg" xmlns:xlink="http://www.w3.org/1999/xlink" x="0px" y="0px"
	 viewBox="0 0 302.928 302.928" style="enable-background:new 0 0 302.928 302.928;" xml:space="preserve">
<path d="M91.047,104.849c0.351-13.825,5.306-27.687,13.595-38.029c12.608-15.733,12.881-41.476,0.563-52.971
	c-3.23-3.014-3.405-8.076-0.391-11.307c3.014-3.229,8.077-3.406,11.307-0.391c20.516,19.144,16.997,54.719,1.006,74.674
	c-11.789,14.71-14.724,40.726-1.007,53.523c3.23,3.015,3.406,8.076,0.392,11.307c-1.576,1.689-3.711,2.543-5.852,2.543
	c-1.955,0-3.914-0.712-5.456-2.15C95.692,133.172,90.663,119.962,91.047,104.849z M298.904,172.196v22.358
	c0,30.04-24.439,54.479-54.479,54.479h-21.806v45.895c0,4.418-3.582,8-8,8H12.025c-4.418,0-8-3.582-8-8V71.823c0-4.418,3.582-8,8-8
	h51.313c10.416-15.835,9.949-39.182-1.615-49.974c-3.23-3.015-3.405-8.077-0.39-11.307c3.014-3.231,8.077-3.406,11.307-0.391
	c20.515,19.145,16.996,54.72,1.007,74.674c-11.789,14.709-14.724,40.725-1.007,53.523c3.23,3.015,3.405,8.077,0.391,11.308
	c-3.015,3.23-8.078,3.403-11.307,0.392c-9.513-8.877-14.541-22.088-14.157-37.198c0.218-8.615,2.225-17.245,5.711-25.027H20.025
	v207.105h186.594v-43.359c-0.266-0.797-0.41-1.649-0.41-2.535V125.717c0-0.886,0.144-1.738,0.41-2.535V79.823H146.47
	c-4.418,0-8-3.582-8-8s3.582-8,8-8h68.149c4.418,0,8,3.582,8,8v45.894h21.806C274.465,117.717,298.904,142.156,298.904,172.196z
	 M282.904,172.196c0-21.218-17.261-38.479-38.479-38.479h-21.806v99.317h21.806c21.217,0,38.479-17.262,38.479-38.479V172.196z"/>
<g>
</g>
<g>
</g>
<g>
</g>
<g>
</g>
<g>
</g>
<g>
</g>
<g>
</g>
<g>
</g>
<g>
</g>
<g>
</g>
<g>
</g>
<g>
</g>
<g>
</g>
<g>
</g>
<g>
</g>
</svg>
