<?xml version="1.0" encoding="utf-8"?>
<!-- Generator: Adobe Illustrator 19.1.0, SVG Export Plug-In . SVG Version: 6.00 Build 0)  -->
<!DOCTYPE svg PUBLIC "-//W3C//DTD SVG 1.1//EN" "http://www.w3.org/Graphics/SVG/1.1/DTD/svg11.dtd">
<svg version="1.1" id="Calque_1" xmlns="http://www.w3.org/2000/svg" xmlns:xlink="http://www.w3.org/1999/xlink" x="0px" y="0px"
	 viewBox="0 0 30 30" enable-background="new 0 0 30 30" xml:space="preserve">
<g transform="translate(40 120)">
	<path d="M-22.3-108.1c-0.3,0-0.6-0.3-0.6-0.6c0-1.7-1.4-3.1-3.1-3.1c-0.3,0-0.6-0.3-0.6-0.6s0.3-0.6,0.6-0.6c1.7,0,3.1-1.4,3.1-3.1
		c0-0.3,0.3-0.6,0.6-0.6c0.3,0,0.6,0.3,0.6,0.6c0,1.7,1.4,3.1,3.1,3.1c0.3,0,0.6,0.3,0.6,0.6s-0.3,0.6-0.6,0.6
		c-1.7,0-3.1,1.4-3.1,3.1C-21.7-108.4-21.9-108.1-22.3-108.1z M-23.8-112.5c0.6,0.4,1.1,0.9,1.5,1.5c0.4-0.6,0.9-1.1,1.5-1.5
		c-0.6-0.4-1.1-0.9-1.5-1.5C-22.6-113.3-23.1-112.8-23.8-112.5z"/>
	<path d="M-34.6-104.4c-0.3,0-0.6-0.3-0.6-0.6s-0.3-0.6-0.6-0.6c-0.3,0-0.6-0.3-0.6-0.6s0.3-0.6,0.6-0.6c0.3,0,0.6-0.3,0.6-0.6
		c0-0.3,0.3-0.6,0.6-0.6c0.3,0,0.6,0.3,0.6,0.6c0,0.3,0.3,0.6,0.6,0.6c0.3,0,0.6,0.3,0.6,0.6s-0.3,0.6-0.6,0.6
		c-0.3,0-0.6,0.3-0.6,0.6S-34.3-104.4-34.6-104.4z"/>
	<path d="M-14.1-97.1l-13.1-13.1c-0.4-0.4-0.8-0.5-1.3-0.5c-0.5,0-1,0.2-1.3,0.5l-0.7,0.7c-0.4,0.4-0.5,0.8-0.5,1.3
		c0,0.5,0.2,1,0.5,1.3l13.1,13.1c0.4,0.4,0.8,0.5,1.3,0.5c0.5,0,1-0.2,1.3-0.5l0.7-0.7c0.4-0.4,0.5-0.8,0.5-1.3
		C-13.5-96.3-13.7-96.7-14.1-97.1z M-29.6-108.6l0.7-0.7c0.1-0.1,0.3-0.2,0.4-0.2c0.2,0,0.3,0.1,0.4,0.2l1.8,1.8l-1.6,1.6l-1.8-1.8
		C-29.9-107.9-29.9-108.3-29.6-108.6L-29.6-108.6z M-14.9-95.3l-0.7,0.7c-0.1,0.1-0.3,0.2-0.4,0.2c-0.2,0-0.3-0.1-0.4-0.2L-27-105.1
		l1.6-1.6l10.4,10.4C-14.7-96-14.7-95.6-14.9-95.3L-14.9-95.3z"/>
	<path d="M-32.2-110.6c-0.3,0-0.6-0.3-0.6-0.6c0-1-0.8-1.9-1.9-1.9c-0.3,0-0.6-0.3-0.6-0.6c0-0.3,0.3-0.6,0.6-0.6
		c1,0,1.9-0.8,1.9-1.9c0-0.3,0.3-0.6,0.6-0.6c0.3,0,0.6,0.3,0.6,0.6c0,1,0.8,1.9,1.9,1.9c0.3,0,0.6,0.3,0.6,0.6
		c0,0.3-0.3,0.6-0.6,0.6c-1,0-1.9,0.8-1.9,1.9C-31.5-110.9-31.8-110.6-32.2-110.6z M-32.8-113.7c0.2,0.2,0.4,0.4,0.6,0.6
		c0.2-0.2,0.4-0.4,0.6-0.6c-0.2-0.2-0.4-0.4-0.6-0.6C-32.3-114.1-32.5-113.9-32.8-113.7z"/>
	<path d="M-32.2-98.3c-0.3,0-0.6-0.3-0.6-0.6c0-1-0.8-1.9-1.9-1.9c-0.3,0-0.6-0.3-0.6-0.6s0.3-0.6,0.6-0.6c1,0,1.9-0.8,1.9-1.9
		c0-0.3,0.3-0.6,0.6-0.6c0.3,0,0.6,0.3,0.6,0.6c0,1,0.8,1.9,1.9,1.9c0.3,0,0.6,0.3,0.6,0.6s-0.3,0.6-0.6,0.6c-1,0-1.9,0.8-1.9,1.9
		C-31.5-98.5-31.8-98.3-32.2-98.3z M-32.8-101.3c0.2,0.2,0.4,0.4,0.6,0.6c0.2-0.2,0.4-0.4,0.6-0.6c-0.2-0.2-0.4-0.4-0.6-0.6
		C-32.3-101.7-32.5-101.5-32.8-101.3z"/>
</g>
</svg>
