<?xml version="1.0" encoding="utf-8"?>
<!-- Generator: Adobe Illustrator 18.0.0, SVG Export Plug-In . SVG Version: 6.00 Build 0)  -->
<!DOCTYPE svg PUBLIC "-//W3C//DTD SVG 1.1//EN" "http://www.w3.org/Graphics/SVG/1.1/DTD/svg11.dtd">
<svg version="1.1" id="Layer_1" xmlns="http://www.w3.org/2000/svg" xmlns:xlink="http://www.w3.org/1999/xlink" x="0px" y="0px"
	 viewBox="0 0 600 371" enable-background="new 0 0 600 371" xml:space="preserve">
<g>
	<g>
		<path d="M33.4,327.8c-8.3,0-15.1-6.8-15.1-15.1C18.2,156.8,145.1,29.9,301,29.9c23.4,0,46.6,2.9,69.1,8.5c8.1,2,13,10.2,11,18.3
			c-2,8.1-10.2,13-18.3,11c-20-5-40.8-7.6-61.7-7.6c-139.3,0-252.5,113.3-252.5,252.5C48.5,321,41.7,327.8,33.4,327.8z"/>
	</g>
	<g>
		<path d="M568.6,327.8c-8.3,0-15.1-6.8-15.1-15.1c0-77.4-34.8-149.5-95.4-197.7c-6.5-5.2-7.6-14.7-2.4-21.2
			c5.2-6.5,14.7-7.6,21.2-2.4c67.9,54,106.8,134.7,106.8,221.4C583.8,321,577,327.8,568.6,327.8z"/>
	</g>
	<g>
		<path d="M344.7,307.7c0.3-0.5,0.7-1,1-1.5c1.8-3,51.9-127.3,91.1-224.5c7.6-18.8-17.5-33.3-30-17.3
			c-64.5,82.4-146.9,187.8-148.5,190.6c-0.3,0.5-0.5,1-0.8,1.6L257,257l0.1,0.1c-12.5,23.8-4.2,53.5,19.2,67.2
			c23.4,13.7,53.3,6.5,68-16.1l0.1,0.1L344.7,307.7z"/>
	</g>
</g>
</svg>
