<?xml version="1.0" encoding="utf-8"?>
<!-- Generator: Adobe Illustrator 18.0.0, SVG Export Plug-In . SVG Version: 6.00 Build 0)  -->
<!DOCTYPE svg PUBLIC "-//W3C//DTD SVG 1.1//EN" "http://www.w3.org/Graphics/SVG/1.1/DTD/svg11.dtd">
<svg version="1.1" id="Layer_1" xmlns="http://www.w3.org/2000/svg" xmlns:xlink="http://www.w3.org/1999/xlink" x="0px" y="0px"
	 viewBox="0 0 600 436" enable-background="new 0 0 600 436" xml:space="preserve">
<g>
	<path d="M481.2,344.7H353.4c-19.8,0-35.9-16.1-35.9-35.9v-36.9c0-5.7,4.7-10.4,10.4-10.4h16.7L296.8,207l-48,54.5h16.7
		c5.7,0,10.4,4.7,10.4,10.4v36.9c0,19.8-16.1,35.9-35.9,35.9H137.6c-28.7,0-55.1-11.8-74.3-33.1c-19.5-21.7-29-51.1-25.9-80.6
		C42,186.3,76,149.4,120,141.3c17.1-3.2,34.5-2,50.6,3.4c10.8-45,51.1-77.5,98.6-77.5c31.5,0,60.7,14.4,79.9,38.9
		c9.7-3.6,19.7-5.4,29.9-5.4c42,0,77.7,29.9,85.9,70c2.9-0.4,5.9-0.6,9.1-0.6c48.5,0,88,39.9,88,88.9
		C562,306.3,525.8,344.7,481.2,344.7z M338.3,282.3v26.5c0,8.3,6.8,15.1,15.1,15.1h127.8c33.1,0,60-29.1,60-64.9
		c0-36.9-30.8-68.1-67.2-68.1c-4.4,0-9.2,0.7-15.5,2.2c-3,0.7-6.1,0.1-8.6-1.8c-2.5-1.8-4-4.6-4.2-7.7
		c-2.4-34.8-31.7-62.1-66.8-62.1c-9.9,0-19.7,2.3-29,6.8c-4.7,2.3-10.4,0.7-13.2-3.7c-15-22.9-40.2-36.6-67.6-36.6
		c-41.4,0-75.9,31-80.2,72.2c-0.4,3.4-2.3,6.4-5.3,8c-3,1.6-6.5,1.7-9.6,0.3c-15.7-7.6-33-9.9-50.4-6.7c-35,6.5-62,35.8-65.7,71.4
		c-2.5,23.7,5.1,47.3,20.7,64.6c15.2,16.9,36.2,26.2,58.9,26.2h102.3c8.3,0,15.1-6.8,15.1-15.1v-26.5h-29.3c-4.1,0-7.8-2.4-9.5-6.1
		c-1.7-3.7-1-8.1,1.7-11.2l71.1-80.6c2-2.2,4.8-3.5,7.8-3.5c0,0,0,0,0,0c3,0,5.8,1.3,7.8,3.5l70.6,80.6c2.7,3.1,3.3,7.4,1.6,11.1
		c-1.7,3.7-5.4,6.1-9.5,6.1H338.3z"/>
</g>
</svg>
